C:\Users\santiago.moreno\Documents\pruebas\workspace\examentecnico\src\main\java\com\quares\test\examentecnico\core\MovieRepresentation.java
C:\Users\santiago.moreno\Documents\pruebas\workspace\examentecnico\src\main\java\com\quares\test\examentecnico\health\TemplateHealthCheck.java
C:\Users\santiago.moreno\Documents\pruebas\workspace\examentecnico\src\main\java\com\quares\test\examentecnico\resources\MovieResource.java
C:\Users\santiago.moreno\Documents\pruebas\workspace\examentecnico\src\main\java\com\quares\test\examentecnico\PruebaApplication.java
C:\Users\santiago.moreno\Documents\pruebas\workspace\examentecnico\src\main\java\com\quares\test\examentecnico\PruebaConfiguration.java
